"description"	"title"	"lon"	"lat"	"icon"	"iconSize"	"iconOffset"
2016	"UK"	-2.69531	54.75844	"/Users/hdiwan/Desktop/Ol_icon_red_example.png"	"16x16"	"0,0"
2014	"Afghanistan"	66	33	"/Users/hdiwan/Desktop/Ol_icon_red_example.png"	"16x16"	"0,0"
2014	"UK"	-2.69531	54.75844	"/Users/hdiwan/Desktop/Ol_icon_red_example.png"	"16x16"	"0,0"
2011	"Libya"	17	28	"/Users/hdiwan/Desktop/Ol_icon_red_example.png"	"16x16"	"0,0"
2009	"Honduras"	-86.5	15	"/Users/hdiwan/Desktop/Ol_icon_red_example.png"	"16x16"	"0,0"
2006	"Palestine"	35.20329	31.92157	"/Users/hdiwan/Desktop/Ol_icon_red_example.png"	"16x16"	"0,0"
2005	"Syria"	38	35	"/Users/hdiwan/Desktop/Ol_icon_red_example.png"	"16x16"	"0,0"
2003	"Iran"	53	32	"/Users/hdiwan/Desktop/Ol_icon_red_example.png"	"16x16"	"0,0"
2003	"Iraq"	44	33	"/Users/hdiwan/Desktop/Ol_icon_red_example.png"	"16x16"	"0,0"
2002	"Venezuela"	-66	8	"/Users/hdiwan/Desktop/Ol_icon_red_example.png"	"16x16"	"0,0"
1999	"Yugoslavia"	20.46787	44.81838	"/Users/hdiwan/Desktop/Ol_icon_red_example.png"	"16x16"	"0,0"
1994	"Iraq"	44	33	"/Users/hdiwan/Desktop/Ol_icon_red_example.png"	"16x16"	"0,0"
1991	"Haiti"	-72.41667	19	"/Users/hdiwan/Desktop/Ol_icon_red_example.png"	"16x16"	"0,0"
1991	"Kuwait"	47.75	29.5	"/Users/hdiwan/Desktop/Ol_icon_red_example.png"	"16x16"	"0,0"
1989	"Panama"	-80	9	"/Users/hdiwan/Desktop/Ol_icon_red_example.png"	"16x16"	"0,0"
